{
  "project_info": {
    "project_number": "74205037271",
    "firebase_url": "https://cmiotkotlinfirebase-88f95.firebaseio.com",
    "project_id": "cmiotkotlinfirebase-88f95",
    "storage_bucket": "cmiotkotlinfirebase-88f95.appspot.com"
  },
  "client": [
    {
      "client_info": {
        "mobilesdk_app_id": "1:74205037271:android:61c9d3f186748a274ee692",
        "android_client_info": {
          "package_name": "com.codemobiles.cmiotkotlinfirebase"
        }
      },
      "oauth_client": [
        {
          "client_id": "74205037271-6ta1mql8kng032j2dta3ovscca3sonol.apps.googleusercontent.com",
          "client_type": 1,
          "android_info": {
            "package_name": "com.codemobiles.cmiotkotlinfirebase",
            "certificate_hash": "04ef5599d9a3a2b4e3a6c26b7ef5bdde0c4a74c3"
          }
        },
        {
          "client_id": "74205037271-ko5p98u68vjtc8tsk09nnei0uav9s3fn.apps.googleusercontent.com",
          "client_type": 3
        }
      ],
      "api_key": [
        {
          "current_key": "AIzaSyCV-fl_WgOgRD7qrO5SFCcoj0HAiRC3Uak"
        }
      ],
      "services": {
        "appinvite_service": {
          "other_platform_oauth_client": [
            {
              "client_id": "74205037271-ko5p98u68vjtc8tsk09nnei0uav9s3fn.apps.googleusercontent.com",
              "client_type": 3
            }
          ]
        }
      }
    }
  ],
  "configuration_version": "1"
}